Weekly chart data analysis
…
Weekly chart data analysis

Gregor Aisch

9/22/2020

R Markdown

Load some useful packages using needs

needs(tidyverse, directlabels, ggrepel)

Let’s load yearly, seasonal and monthly averages for air temperature

## # A tibble: 2,373 x 4
##     year time  value measure    
##    <dbl> <chr> <dbl> <chr>      
##  1  1881 Year   7.31 temperature
##  2  1882 Year   8.34 temperature
##  3  1883 Year   7.88 temperature
##  4  1884 Year   8.57 temperature
##  5  1885 Year   7.74 temperature
##  6  1886 Year   8.02 temperature
##  7  1887 Year   6.95 temperature
##  8  1888 Year   6.85 temperature
##  9  1889 Year   7.38 temperature
## 10  1890 Year   7.31 temperature
## # … with 2,363 more rows

Load yearly, seasonal and monthly averages for precipitation

## # A tibble: 2,373 x 4
##     year time  value measure      
##    <dbl> <chr> <dbl> <chr>        
##  1  1881 Year   694. precipitation
##  2  1882 Year   927. precipitation
##  3  1883 Year   687. precipitation
##  4  1884 Year   732. precipitation
##  5  1885 Year   718. precipitation
##  6  1886 Year   723. precipitation
##  7  1887 Year   602. precipitation
##  8  1888 Year   766. precipitation
##  9  1889 Year   751. precipitation
## 10  1890 Year   744. precipitation
## # … with 2,363 more rows
…
Join temperature and precipitation data, add baseline, compute anomalies.

out <- temp %>% 
  left_join(temp.base) %>% 
  bind_rows(left_join(precip, precip.base)) %>%            
  mutate(anomaly=ifelse(measure=='temperature',
                        value-base,             # difference anomaly for temp.
                        (value-base)/base*100)) %>%  # pct. anomaly for rain 
  select(year, time, measure, anomaly) %>% 
  pivot_wider(names_from=measure, values_from=anomaly)

out

## # A tibble: 2,373 x 4
##     year time  temperature precipitation
##    <dbl> <chr>       <dbl>         <dbl>
##  1  1881 Year      -0.930         -12.1 
##  2  1882 Year       0.0997         17.5 
##  3  1883 Year      -0.360         -12.9 
##  4  1884 Year       0.330          -7.19
##  5  1885 Year      -0.500          -8.94
##  6  1886 Year      -0.220          -8.41
##  7  1887 Year      -1.29          -23.7 
##  8  1888 Year      -1.39           -2.88
##  9  1889 Year      -0.860          -4.77
## 10  1890 Year      -0.930          -5.63
## # … with 2,363 more rows
…
